Predictor Variables Calculations 1
…
    group_by(dataset, tp, cell_label) %>%
    dplyr::mutate(AlphaSR = sum(n_distinct(verbatim_name))) %>%
    dplyr::mutate(BetaSR = GammaSR / AlphaSR) %>%
    ungroup() %>%
  
    group_by(dataset, tp, verbatim_name) %>%
    dplyr::mutate(AlphaSR_sp = mean(AlphaSR)) %>%
    dplyr::mutate(BetaSR_sp = GammaSR / AlphaSR_sp) %>%
    dplyr::select(dataset, tp, verbatim_name, AlphaSR_sp, BetaSR_sp, GammaSR) %>%
    distinct()

GammaAlphaBeta_Species

# A tibble: 2,168 × 6
# Groups:   dataset, tp, verbatim_name [2,168]
   dataset             tp    verbatim_name      AlphaSR_sp BetaSR_sp GammaSR
   <chr>               <fct> <chr>                   <dbl>     <dbl>   <int>
 1 Birds_Atlas_Czechia 1     Ardea cinerea            115.      1.74     200
 2 Birds_Atlas_Czechia 1     Ciconia nigra            108.      1.85     200
 3 Birds_Atlas_Czechia 1     Ciconia ciconia          110.      1.82     200
 4 Birds_Atlas_Czechia 1     Cygnus olor              110.      1.81     200
 5 Birds_Atlas_Czechia 1     Anas platyrhynchos       106.      1.90     200
 6 Birds_Atlas_Czechia 1     Aythya ferina            112.      1.78     200
 7 Birds_Atlas_Czechia 1     Aythya fuligula          111.      1.80     200
 8 Birds_Atlas_Czechia 1     Circus aeruginosus       112.      1.78     200
 9 Birds_Atlas_Czechia 1     Accipiter gentilis       107.      1.88     200
10 Birds_Atlas_Czechia 1     Accipiter nisus          107.      1.87     200
# ℹ 2,158 more rows
…
